"","Category","lastPlace","perRank","thirdPlace"
"1","BA",0.256394879568293,0.00118253820404132,0.268220261608706
"2","ERA",3.98809698669727,-0.0441500276254834,3.54659671044243
"3","HR",229.567437238281,2.54884105143596,255.05584775264
"4","K",1132.74358518901,17.8116515629929,1310.86010081894
"5","R",896.18261563281,2.76423715992753,923.824987232086
"6","RBI",854.054303868093,3.80691940511718,892.123497919265
"7","SB",94.369389037873,3.05724762615982,124.941865299471
"8","SV",42.5034118095793,5.11837095905748,93.6871214001542
"9","W",70.8745251016855,1.99104196679007,90.7849447695862
"10","WHIP",1.28112509397734,-0.00877457393048706,1.19337935467247
"11","OPS",0.749292763891622,0.00448026963196221,0.794095460211245
"12","QS",96.7216468942887,0.503724916223441,101.758896056523
"13","SHD",53.6723148148148,2.44296296296296,78.1019444444444
"14","IP",1105.98702996437,17.3174227405248,1279.16125736961
"15","OBP",0.317206449668475,0.00297558770343581,0.346962326702833
